…
*b)*

Não, pois o tidy apresenta 10 linhas e a tabela em questão 39.

*c)*

``` r
 dados_co2. %>%                
pivot_longer(
1:13,                
names_to = "ano",    
values_to = "dez")
```

    ## # A tibble: 507 x 2
    ##    ano     dez
    ##    <chr> <dbl>
    ##  1 ano   1959 
    ##  2 jan    315.
    ##  3 fev    316.
    ##  4 mar    316.
    ##  5 abr    318.
    ##  6 mai    318.
    ##  7 jun    318 
    ##  8 jul    316.
    ##  9 ago    315.
    ## 10 set    314.
    ## # ... with 497 more rows

*d)*

``` r
dados_co2_tidy <- dados_co2. %>%  
  pivot_longer(
    !ano,
    names_to = "mes",
    values_to = "ppm"
  )

dados_co2_tidy
```

    ## # A tibble: 468 x 3
    ##      ano mes     ppm
    ##    <dbl> <chr> <dbl>
    ##  1  1959 jan    315.
    ##  2  1959 fev    316.
    ##  3  1959 mar    316.
    ##  4  1959 abr    318.
    ##  5  1959 mai    318.
    ##  6  1959 jun    318 
    ##  7  1959 jul    316.
    ##  8  1959 ago    315.
    ##  9  1959 set    314.
    ## 10  1959 out    313.
    ## # ... with 458 more rows
…
